-------------------------------------------------------------------------------
Test set: com.cognizant.project.management.controller.ProjectMgmtControllerTest
-------------------------------------------------------------------------------
Tests run: 20, Failures: 0, Errors: 0, Skipped: 0, Time elapsed: 16.81 s - in com.cognizant.project.management.controller.ProjectMgmtControllerTest
