com\cognizant\project\management\model\ParentTask.class
com\cognizant\project\management\vo\ProjectVO.class
com\cognizant\project\management\service\impl\ProjectManagementServiceImpl.class
com\cognizant\project\management\model\Users.class
com\cognizant\project\management\ProjectManagementApplication.class
com\cognizant\project\management\repository\ParentTaskRepository.class
com\cognizant\project\management\model\Project.class
com\cognizant\project\management\repository\ProjectRepository.class
com\cognizant\project\management\service\ProjectManagementService.class
com\cognizant\project\management\vo\ParentTaskVO.class
com\cognizant\project\management\vo\TaskVO.class
com\cognizant\project\management\vo\ManagerVO.class
com\cognizant\project\management\vo\UserVO.class
com\cognizant\project\management\model\Task.class
com\cognizant\project\management\repository\TaskRepository.class
com\cognizant\project\management\controller\ProjectMgmtController.class
com\cognizant\project\management\validator\ProjectValidator.class
com\cognizant\project\management\model\ProjectManagementVO.class
com\cognizant\project\management\repository\UsersRepository.class
com\cognizant\project\management\validator\UserValidator.class
