G:\Tmp\Project-Management-Service-master\ProjectManagement\src\main\java\com\cognizant\project\management\service\ProjectManagementService.java
G:\Tmp\Project-Management-Service-master\ProjectManagement\src\main\java\com\cognizant\project\management\model\ParentTask.java
G:\Tmp\Project-Management-Service-master\ProjectManagement\src\main\java\com\cognizant\project\management\model\ProjectManagementVO.java
G:\Tmp\Project-Management-Service-master\ProjectManagement\src\main\java\com\cognizant\project\management\repository\UsersRepository.java
G:\Tmp\Project-Management-Service-master\ProjectManagement\src\main\java\com\cognizant\project\management\repository\ProjectRepository.java
G:\Tmp\Project-Management-Service-master\ProjectManagement\src\main\java\com\cognizant\project\management\repository\ParentTaskRepository.java
G:\Tmp\Project-Management-Service-master\ProjectManagement\src\main\java\com\cognizant\project\management\vo\ParentTaskVO.java
G:\Tmp\Project-Management-Service-master\ProjectManagement\src\main\java\com\cognizant\project\management\vo\TaskVO.java
G:\Tmp\Project-Management-Service-master\ProjectManagement\src\main\java\com\cognizant\project\management\ProjectManagementApplication.java
G:\Tmp\Project-Management-Service-master\ProjectManagement\src\main\java\com\cognizant\project\management\model\Project.java
G:\Tmp\Project-Management-Service-master\ProjectManagement\src\main\java\com\cognizant\project\management\model\Task.java
G:\Tmp\Project-Management-Service-master\ProjectManagement\src\main\java\com\cognizant\project\management\service\impl\ProjectManagementServiceImpl.java
G:\Tmp\Project-Management-Service-master\ProjectManagement\src\main\java\com\cognizant\project\management\validator\UserValidator.java
G:\Tmp\Project-Management-Service-master\ProjectManagement\src\main\java\com\cognizant\project\management\vo\ManagerVO.java
G:\Tmp\Project-Management-Service-master\ProjectManagement\src\main\java\com\cognizant\project\management\controller\ProjectMgmtController.java
G:\Tmp\Project-Management-Service-master\ProjectManagement\src\main\java\com\cognizant\project\management\repository\TaskRepository.java
G:\Tmp\Project-Management-Service-master\ProjectManagement\src\main\java\com\cognizant\project\management\model\Users.java
G:\Tmp\Project-Management-Service-master\ProjectManagement\src\main\java\com\cognizant\project\management\vo\ProjectVO.java
G:\Tmp\Project-Management-Service-master\ProjectManagement\src\main\java\com\cognizant\project\management\validator\ProjectValidator.java
G:\Tmp\Project-Management-Service-master\ProjectManagement\src\main\java\com\cognizant\project\management\vo\UserVO.java
