com\cognizant\project\management\ProjectManagementApplicationTests.class
com\cognizant\project\management\service\impl\ProjectManagementServiceImplTest.class
com\cognizant\project\management\controller\ProjectMgmtControllerTest.class
