G:\Tmp\Project-Management-Service-master\ProjectManagement\src\test\java\com\cognizant\project\management\ProjectManagementApplicationTests.java
G:\Tmp\Project-Management-Service-master\ProjectManagement\src\test\java\com\cognizant\project\management\service\impl\ProjectManagementServiceImplTest.java
G:\Tmp\Project-Management-Service-master\ProjectManagement\src\test\java\com\cognizant\project\management\controller\ProjectMgmtControllerTest.java
